adder_circuits/four_bit_adder_waves.vcd
$date
	Thu Jan 19 20:24:11 2023
$end
$version
	Icarus Verilog
$end
$timescale
	1ns
$end
$scope module full_adder_top $end
$scope module four_bit_adder $end
$var wire 4 ! a [3:0] $end
$var wire 4 " b [3:0] $end
$var wire 1 # cin $end
$var wire 1 $ cout $end
$var wire 1 % overfl $end
$var wire 4 & y [3:0] $end
$var wire 1 ' sum3 $end
$var wire 1 ( sum2 $end
$var wire 1 ) sum1 $end
$var wire 1 * sum0 $end
$var wire 1 + s2 $end
$var wire 1 , s1 $end
$var wire 1 - s0 $end
$var wire 1 . cout_temp $end
$var wire 1 / b3 $end
$var wire 1 0 b2 $end
$var wire 1 1 b1 $end
$var wire 1 2 b0 $end
$var wire 1 3 a3 $end
$var wire 1 4 a2 $end
$var wire 1 5 a1 $end
$var wire 1 6 a0 $end
$scope module full_adder_i0 $end
$var wire 1 6 a $end
$var wire 1 2 b $end
$var wire 1 # cin $end
$var wire 1 + cout $end
$var wire 1 * sum $end
$upscope $end
$scope module full_adder_i1 $end
$var wire 1 5 a $end
$var wire 1 1 b $end
$var wire 1 + cin $end
$var wire 1 , cout $end
$var wire 1 ) sum $end
$upscope $end
$scope module full_adder_i2 $end
$var wire 1 4 a $end
$var wire 1 0 b $end
$var wire 1 , cin $end
$var wire 1 - cout $end
$var wire 1 ( sum $end
$upscope $end
$scope module full_adder_i3 $end
$var wire 1 3 a $end
$var wire 1 / b $end
$var wire 1 - cin $end
$var wire 1 . cout $end
$var wire 1 ' sum $end
$upscope $end
$upscope $end
$upscope $end
$enddefinitions $end
#0
$dumpvars
06
05
04
03
02
01
00
0/
0.
0-
0,
0+
0*
0)
0(
0'
b0 &
0%
0$
0#
b0 "
b0 !
$end
#10
b10 &
1)
1+
16
12
b1 !
b1 "
#20
0)
0+
b1 &
1*
06
02
1#
b0 !
b0 "
#30
1(
1,
b100 &
0*
15
11
0#
b10 !
b10 "
#40
b110 &
1)
1+
16
12
b11 !
b11 "
#50
1$
1.
b1110 &
1'
0%
1-
13
14
1/
10
b1111 !
b1111 "
#60
b1111 &
1*
1#
#70
1%
0$
0.
b1110 &
0*
03
0/
0#
b111 !
b111 "
#80
0'
0(
b0 &
0)
0-
0,
0+
1$
1.
13
04
05
06
1/
00
01
02
b1000 !
b1000 "
#90
0%
0$
0.
1(
b110 &
1)
03
14
0/
11
b100 !
b10 "
#100
1'
1%
1-
0(
b1000 &
0)
10
01
b100 "
#110
0%
0$
0.
0-
1'
1(
1)
b1111 &
1*
13
00
11
12
b1100 !
b11 "
#120
0(
b1001 &
0)
04
01
b1000 !
b1 "
#130
1$
1.
0'
0%
1-
1,
1+
0(
0)
b0 &
0*
03
14
16
1/
11
02
1#
b101 !
b1010 "
#140
0(
1)
1%
0+
1'
0$
0.
0,
b1011 &
1*
15
0/
10
01
0#
b111 !
b100 "
#150
0%
1,
1-
0)
0'
1$
1.
0(
1+
b0 &
0*
06
1/
00
12
1#
b110 !
b1001 "
